<?xml version="1.0" encoding="iso-8859-1"?>
<!-- Generator: Adobe Illustrator 19.0.0, SVG Export Plug-In . SVG Version: 6.00 Build 0)  -->
<svg version="1.1" id="Capa_1" xmlns="http://www.w3.org/2000/svg" xmlns:xlink="http://www.w3.org/1999/xlink" x="0px" y="0px"
	 viewBox="0 0 512 512" style="enable-background:new 0 0 512 512;" xml:space="preserve">
<circle style="fill:#F7F0E6;" cx="256" cy="256" r="256"/>
<path style="fill:#EEE2D4;" d="M424.681,291.229c-0.225-5.272-3.28-10.011-7.987-12.395l-29.185-14.775
	c-0.782-0.396-1.598-0.72-2.438-0.97l-23.545-6.99l0.585-1.308c0.894-1.996,1.234-4.115,1.297-6.235l8.98,1.124
	c3.652,0.458,7.341-0.482,10.33-2.629l24.685-17.737c4.159-2.989,6.448-7.939,6.03-13.044l-2.454-29.912
	c-0.227-2.769-1.24-5.416-2.919-7.629l-18.253-24.05c-1.609-2.12-3.768-3.76-6.242-4.742l-29.797-11.821
	c-3.289-1.305-6.83-1.218-10.061-0.115l-2.927-10.237c-0.252-0.881-0.583-1.738-0.988-2.56L325.67,96.593
	c-2.412-4.888-7.249-8.119-12.689-8.475l-30.494-1.997c-3.841-0.252-7.634,0.957-10.621,3.384L247.19,109.55
	c-4.158,3.377-6.241,8.688-5.488,13.991l4.411,31.078c0.409,2.877,1.63,5.578,3.52,7.785l20.544,23.979
	c1.811,2.115,4.166,3.693,6.811,4.566l5.311,1.751l-24.087,3.612c-6.168,0.925-11.281,5.259-13.205,11.19l-10.339,31.887
	c-1.834,5.656-0.471,11.862,3.563,16.231l25.012,27.078c0.314,0.339,0.686,0.616,1.026,0.928l-8.157,3.197
	c-0.949,0.372-1.787,0.942-2.644,1.477l-2.241-6.699c-1.315-3.933-4.068-7.223-7.706-9.212l-30.055-16.433
	c-5.064-2.769-11.21-2.68-16.192,0.233l-29.193,17.075c-2.703,1.581-4.898,3.9-6.328,6.686l-4.599,8.961
	c-1.96-4.019-5.453-7.152-9.826-8.518l-31.429-9.815c-3.958-1.237-8.237-0.931-11.98,0.853L73,286.176
	c-5.21,2.484-8.737,7.518-9.291,13.263l-3.252,33.663c-0.301,3.117,0.294,6.254,1.715,9.045l15.442,30.316
	c1.362,2.673,3.428,4.923,5.976,6.506l30.686,19.059c5.298,3.29,12.001,3.301,17.309,0.027l28.532-17.596
	c2.945-1.816,5.071-4.522,6.381-7.598l12.607,5.221l-1.646,23.274c-0.4,5.645,2.28,11.067,7.008,14.179l29.308,19.29
	c0.786,0.517,1.616,0.962,2.481,1.329l30.112,12.804c5.144,2.188,11.065,1.465,15.533-1.895l25.046-18.838
	c1.965-1.478,3.476-3.415,4.552-5.582l13.612,8.159c0.848,0.508,1.739,0.938,2.663,1.286l32.175,12.108
	c5.497,2.069,11.679,1.048,16.22-2.676l25.458-20.881c3.207-2.629,5.3-6.374,5.863-10.482l4.652-33.937
	c0.784-5.719-1.487-11.429-5.985-15.047l-12.239-9.845l8.841,0.342c2.661,0.103,5.297-0.524,7.628-1.812l28.052-15.515
	c4.843-2.678,7.753-7.866,7.516-13.394L424.681,291.229z"/>
<path style="fill:#FFC173;" d="M332.733,275.688l-1.971,30.334c-0.332,5.111,2.04,10.022,6.249,12.94l24.666,17.097
	c2.284,1.583,4.972,2.481,7.748,2.588l30.169,1.168c2.66,0.103,5.298-0.523,7.628-1.812l28.052-15.515
	c4.843-2.678,7.754-7.866,7.517-13.395l-1.274-29.72c-0.226-5.272-3.28-10.011-7.988-12.395l-29.185-14.775
	c-0.782-0.396-1.598-0.72-2.438-0.97l-29.245-8.682c-4.996-1.484-10.404-0.189-14.188,3.395l-21.213,20.093
	C334.588,268.57,332.972,272.016,332.733,275.688z"/>
<circle style="fill:#FAAF69;" cx="380.45" cy="287.84" r="8.46"/>
<path style="fill:#C9E66E;" d="M395.696,303.677c1.836,0.803,3.366,2.307,4.155,4.322l2.524,6.448
	c1.577,4.03-0.409,8.572-4.439,10.149s-8.572-0.409-10.149-4.439l-2.524-6.448c-1.577-4.03,0.409-8.572,4.439-10.149
	C391.717,302.772,393.859,302.874,395.696,303.677z"/>
<g>
	<path style="fill:#ADDF6E;" d="M416.558,282.876c1.206,0.527,2.3,1.365,3.14,2.5l2.355,3.168c2.58,3.475,1.863,8.379-1.612,10.96
		c-3.471,2.59-8.386,1.877-10.96-1.612l-2.355-3.168c-2.58-3.475-1.863-8.379,1.612-10.96
		C411.078,282.024,414.063,281.785,416.558,282.876z"/>
	<circle style="fill:#ADDF6E;" cx="367.58" cy="290.4" r="10.733"/>
</g>
<path style="fill:#FAAF69;" d="M309.779,406.637l5.783-32.087c0.975-5.407-0.957-10.928-5.089-14.549l-24.211-21.215
	c-2.242-1.964-4.997-3.247-7.943-3.699l-32.008-4.908c-2.822-0.433-5.709-0.085-8.349,1.005l-31.778,13.128
	c-5.486,2.266-9.218,7.441-9.637,13.362l-2.251,31.827c-0.399,5.646,2.28,11.067,7.008,14.179l29.308,19.289
	c0.785,0.517,1.616,0.962,2.481,1.33l30.112,12.804c5.144,2.188,11.065,1.465,15.533-1.895l25.046-18.838
	C306.939,413.998,309.079,410.521,309.779,406.637z"/>
<path style="fill:#FFA55F;" d="M266.213,421.629c-0.878-0.346-1.712-0.785-2.491-1.312l-29.093-19.661
	c-4.693-3.172-7.008-9.222-6.054-15.823l5.376-37.213c1-6.923,5.424-13.291,11.425-16.443l1.68-0.883l-0.745-0.114
	c-2.822-0.433-5.709-0.085-8.349,1.005l-31.778,13.128c-5.486,2.266-9.218,7.441-9.637,13.362l-2.251,31.827
	c-0.399,5.646,2.28,11.067,7.008,14.179l29.308,19.289c0.785,0.517,1.616,0.962,2.481,1.33l30.112,12.804
	c5.144,2.188,11.065,1.465,15.533-1.895l7.538-5.67L266.213,421.629z"/>
<path style="fill:#FFC173;" d="M288.702,77.65l-24.676,20.045c-4.158,3.378-6.241,8.688-5.488,13.992l4.411,31.077
	c0.409,2.877,1.63,5.578,3.521,7.785l20.544,23.979c1.812,2.115,4.167,3.693,6.811,4.565l31.841,10.499
	c5.497,1.813,11.546,0.36,15.62-3.751l21.9-22.099c3.885-3.92,5.351-9.632,3.834-14.938l-9.404-32.895
	c-0.252-0.881-0.583-1.738-0.989-2.56l-14.122-28.611c-2.412-4.888-7.249-8.118-12.688-8.474l-30.494-1.998
	C295.482,74.014,291.689,75.224,288.702,77.65z"/>
<g>
	<path style="fill:#FAAF69;" d="M362.093,164.573c-4.075,4.11-10.124,5.564-15.621,3.751l-31.841-10.498
		c-2.644-0.872-4.999-2.451-6.811-4.566l-20.544-23.979c-1.891-2.207-3.112-4.908-3.52-7.785l-4.411-31.078
		c-0.262-1.848-0.066-3.665,0.328-5.433l-15.646,12.71c-4.158,3.377-6.241,8.688-5.488,13.991l4.411,31.078
		c0.409,2.877,1.63,5.578,3.52,7.785l20.544,23.979c1.811,2.115,4.167,3.693,6.811,4.566l31.841,10.498
		c5.497,1.813,11.546,0.359,15.62-3.751l21.9-22.099c0.345-0.348,0.565-0.776,0.871-1.151L362.093,164.573z"/>
	<circle style="fill:#FAAF69;" cx="313.29" cy="122.9" r="8.848"/>
</g>
<path style="fill:#C9E66E;" d="M311.971,145.855c0.689,1.98,0.622,4.223-0.364,6.26l-3.154,6.519
	c-1.971,4.074-6.868,5.778-10.942,3.807c-4.074-1.971-5.778-6.868-3.807-10.942l3.154-6.519c1.971-4.074,6.868-5.778,10.942-3.807
	C309.838,142.158,311.283,143.875,311.971,145.855z"/>
<circle style="fill:#ADDF6E;" cx="302.17" cy="114.84" r="11.225"/>
<path style="fill:#FFC173;" d="M399.553,235.197l24.686-17.737c4.16-2.989,6.448-7.939,6.029-13.044l-2.453-29.912
	c-0.227-2.769-1.24-5.416-2.92-7.63l-18.252-24.049c-1.609-2.121-3.768-3.761-6.243-4.743l-29.797-11.821
	c-5.144-2.041-11-0.996-15.121,2.697l-22.152,19.854c-3.93,3.522-5.652,8.891-4.504,14.041l7.115,31.929
	c0.191,0.855,0.458,1.692,0.799,2.499l11.861,28.107c2.026,4.802,6.46,8.158,11.631,8.806l28.992,3.631
	C392.876,238.283,396.565,237.344,399.553,235.197z"/>
<g>
	<circle style="fill:#FAAF69;" cx="378.64" cy="190.61" r="8.46"/>
	<path style="fill:#FAAF69;" d="M360.653,216.977c-0.363-0.801-0.637-1.636-0.817-2.494l-6.73-32.038
		c-1.086-5.168,1.289-10.722,6.21-14.524l27.739-21.434c5.16-3.987,12.254-5.382,18.317-3.601l1.698,0.499l-0.425-0.56
		c-1.609-2.121-3.768-3.761-6.243-4.743l-29.797-11.821c-5.144-2.041-11-0.996-15.121,2.697l-22.152,19.854
		c-3.93,3.522-5.652,8.891-4.504,14.041l7.115,31.929c0.191,0.855,0.458,1.692,0.799,2.499l11.861,28.107
		c2.026,4.802,6.46,8.158,11.631,8.806l8.726,1.093L360.653,216.977z"/>
</g>
<path style="fill:#C9E66E;" d="M381.201,168.782c-0.545-1.929-0.355-4.066,0.701-5.954l3.379-6.044
	c2.112-3.777,6.882-5.126,10.659-3.015c3.777,2.112,5.126,6.882,3.015,10.659l-3.379,6.044c-2.112,3.777-6.882,5.126-10.659,3.015
	C383.028,172.432,381.746,170.711,381.201,168.782z"/>
<g>
	<path style="fill:#ADDF6E;" d="M351.884,165.872c-0.358-1.266-0.406-2.644-0.062-4.013l0.952-3.831
		c1.046-4.199,5.291-6.759,9.491-5.713c4.205,1.037,6.774,5.287,5.713,9.491l-0.952,3.831c-1.046,4.199-5.291,6.759-9.491,5.713
		C354.705,170.647,352.625,168.493,351.884,165.872z"/>
	<circle style="fill:#ADDF6E;" cx="388.8" cy="198.93" r="10.733"/>
</g>
<path style="fill:#FAAF69;" d="M424.896,166.874l-4.648-6.124c-0.363,0.274-0.779,0.445-1.099,0.79l-7.775,8.376
	c-1.924,2.079-2.511,4.924-1.791,7.471c0.377,1.332,1.113,2.587,2.204,3.606c3.177,2.941,8.133,2.756,11.077-0.414l5.007-5.394
	l-0.056-0.681C427.589,171.734,426.576,169.088,424.896,166.874z"/>
<path style="fill:#FFC173;" d="M120.756,259.578l-30.92,14.743c-5.21,2.484-8.736,7.518-9.291,13.263l-3.251,33.663
	c-0.301,3.117,0.294,6.254,1.715,9.045l15.441,30.316c1.362,2.673,3.428,4.923,5.976,6.506l30.687,19.059
	c5.298,3.291,12.001,3.301,17.309,0.028l28.532-17.596c5.061-3.121,8.043-8.732,7.799-14.673l-1.517-36.831
	c-0.041-0.987-0.17-1.968-0.387-2.932l-7.543-33.54c-1.288-5.73-5.535-10.338-11.142-12.089l-31.429-9.815
	C128.777,257.487,124.498,257.793,120.756,259.578z"/>
<g>
	<circle style="fill:#FAAF69;" cx="135.04" cy="313.2" r="9.533"/>
	<path style="fill:#FAAF69;" d="M160.261,287.551c0.243,0.961,0.38,1.942,0.408,2.929l1.068,36.875
		c0.172,5.948-3.57,11.633-9.786,14.868l-35.043,18.233c-6.519,3.392-14.665,3.523-21.033,0.337l-1.783-0.892l0.36,0.706
		c1.362,2.673,3.428,4.923,5.976,6.506l30.687,19.059c5.298,3.291,12.001,3.301,17.309,0.028l28.532-17.596
		c5.061-3.121,8.043-8.732,7.799-14.673l-1.517-36.831c-0.041-0.987-0.17-1.968-0.387-2.932l-7.543-33.54
		c-1.288-5.73-5.535-10.338-11.142-12.089l-9.46-2.954L160.261,287.551z"/>
</g>
<path style="fill:#C9E66E;" d="M127.85,336.899c0.22,2.248-0.418,4.58-1.966,6.464l-4.954,6.028
	c-3.096,3.768-8.656,4.311-12.423,1.215c-3.768-3.096-4.311-8.656-1.215-12.423l4.954-6.028c3.096-3.768,8.656-4.311,12.423-1.215
	C126.552,332.487,127.63,334.651,127.85,336.899z"/>
<g>
	<path style="fill:#ADDF6E;" d="M159.783,345.98c0.144,1.476-0.078,3.013-0.733,4.463l-1.82,4.059
		c-1.999,4.448-7.218,6.44-11.666,4.441c-4.456-1.989-6.457-7.216-4.441-11.666l1.82-4.059c1.999-4.448,7.218-6.44,11.666-4.441
		C157.607,340.12,159.484,342.925,159.783,345.98z"/>
	<circle style="fill:#ADDF6E;" cx="125.44" cy="301.94" r="12.1"/>
</g>
<g>
	<path style="fill:#FAAF69;" d="M79.009,330.291l3.932,7.72c0.457-0.231,0.953-0.338,1.376-0.656l10.296-7.737
		c2.549-1.921,3.768-4.959,3.477-7.928c-0.152-1.553-0.718-3.091-1.725-4.439c-2.936-3.896-8.47-4.68-12.367-1.753l-6.63,4.983
		l-0.074,0.766C76.993,324.363,77.588,327.501,79.009,330.291z"/>
	<path style="fill:#FAAF69;" d="M364.94,274.196l14.007-31.26c2.36-5.267,1.786-11.386-1.512-16.123l-19.328-27.753
		c-1.79-2.569-4.275-4.574-7.165-5.78l-31.401-13.094c-2.769-1.155-5.801-1.53-8.768-1.086l-35.724,5.357
		c-6.168,0.924-11.281,5.258-13.205,11.19l-10.339,31.887c-1.834,5.656-0.472,11.862,3.563,16.23l25.012,27.078
		c0.67,0.725,1.405,1.389,2.194,1.983l27.471,20.667c4.693,3.531,10.913,4.29,16.319,1.993l30.303-12.88
		C360.183,280.984,363.245,277.979,364.94,274.196z"/>
</g>
<g>
	<circle style="fill:#FFA55F;" cx="319.32" cy="242.6" r="9.533"/>
	<path style="fill:#FFA55F;" d="M316.724,278.473c-0.808-0.575-1.547-1.233-2.209-1.967l-24.699-27.402
		c-3.984-4.42-4.815-11.176-2.174-17.666l14.888-36.59c2.77-6.807,8.891-12.183,15.806-13.88l1.936-0.476l-0.731-0.305
		c-2.769-1.155-5.801-1.53-8.768-1.086l-35.724,5.357c-6.168,0.924-11.281,5.258-13.205,11.19l-10.339,31.887
		c-1.834,5.656-0.472,11.862,3.563,16.23l25.012,27.078c0.67,0.725,1.405,1.389,2.194,1.983l27.471,20.667
		c4.693,3.531,10.913,4.29,16.319,1.993l9.12-3.877L316.724,278.473z"/>
</g>
<path style="fill:#C9E66E;" d="M309.451,219.883c-1.624-1.57-2.648-3.76-2.689-6.198l-0.131-7.801
	c-0.082-4.876,3.802-8.891,8.678-8.973c4.876-0.082,8.891,3.802,8.973,8.678l0.131,7.801c0.082,4.876-3.802,8.891-8.678,8.973
	C313.298,222.404,311.075,221.453,309.451,219.883z"/>
<g>
	<path style="fill:#ADDF6E;" d="M279.241,233.649c-1.066-1.031-1.893-2.346-2.333-3.875l-1.242-4.271
		c-1.359-4.684,1.327-9.582,6.011-10.94c4.684-1.371,9.594,1.315,10.94,6.011l1.242,4.271c1.359,4.684-1.327,9.582-6.011,10.94
		C284.694,236.703,281.447,235.782,279.241,233.649z"/>
	<circle style="fill:#ADDF6E;" cx="333.93" cy="244.96" r="12.1"/>
</g>
<path style="fill:#FFA55F;" d="M350.942,193.281l-7.996-3.335c-0.198,0.472-0.507,0.875-0.623,1.392l-2.832,12.564
	c-0.698,3.115,0.342,6.219,2.486,8.292c1.122,1.085,2.55,1.89,4.19,2.265c4.761,1.066,9.485-1.921,10.557-6.676l1.824-8.091
	l-0.44-0.632C356.317,196.491,353.832,194.486,350.942,193.281z"/>
<path style="fill:#C9E66E;" d="M305.286,256.234c-2.437-4.263-7.843-5.654-12.064-3.212l-17.571,10.183
	c-0.581,0.336-0.974,0.841-1.446,1.279l5.875,6.36c0.67,0.725,1.405,1.389,2.194,1.983l5.216,3.924l14.584-8.452
	C306.294,265.856,307.728,260.454,305.286,256.234z"/>
<path style="fill:#FFC173;" d="M260.358,260.535l-30.055-16.433c-5.064-2.769-11.21-2.68-16.192,0.234l-29.193,17.075
	c-2.703,1.581-4.898,3.9-6.328,6.686l-15.535,30.268c-1.37,2.669-1.984,5.662-1.775,8.654l2.517,36.036
	c0.434,6.221,4.351,11.661,10.112,14.048l30.97,12.827c5.494,2.275,11.788,1.408,16.461-2.269l28.97-22.795
	c0.776-0.611,1.496-1.29,2.15-2.03l22.773-25.753c3.891-4.399,5.139-10.54,3.276-16.11l-10.445-31.226
	C266.749,265.813,263.996,262.524,260.358,260.535z"/>
<path style="fill:#FAAF69;" d="M260.812,308.938c-0.637,0.76-1.351,1.445-2.136,2.046l-29.268,22.456
	c-4.721,3.622-11.521,3.917-17.783,0.772l-35.299-17.732c-6.567-3.299-11.442-9.826-12.588-16.854l-0.321-1.968l-0.362,0.705
	c-1.37,2.669-1.984,5.662-1.775,8.654l2.517,36.036c0.434,6.221,4.351,11.661,10.112,14.048l30.97,12.827
	c5.494,2.275,11.788,1.408,16.461-2.269l28.97-22.795c0.776-0.611,1.496-1.29,2.15-2.03l22.773-25.753
	c3.891-4.399,5.139-10.54,3.276-16.11l-3.144-9.398L260.812,308.938z"/>
<path style="fill:#C9E66E;" d="M201.831,311.559c-1.694,1.494-3.957,2.342-6.391,2.191l-7.787-0.486
	c-4.867-0.304-8.563-4.493-8.259-9.36s4.493-8.563,9.36-8.259l7.787,0.486c4.867,0.304,8.563,4.493,8.259,9.36
	C204.647,307.923,203.524,310.064,201.831,311.559z"/>
<path style="fill:#ADDF6E;" d="M213.166,342.762c-1.112,0.981-2.488,1.701-4.047,2.019l-4.356,0.901
	c-4.777,0.984-9.447-2.08-10.431-6.857c-0.996-4.777,2.069-9.46,6.857-10.431l4.356-0.901c4.777-0.984,9.447,2.08,10.431,6.857
	C216.642,337.567,215.467,340.731,213.166,342.762z"/>
<path style="fill:#FAAF69;" d="M223.19,294.457c-4.345,0-8.129-3.207-8.741-7.629l-1.181-8.629
	c-0.655-4.828,2.724-9.284,7.552-9.948c4.819-0.638,9.276,2.724,9.948,7.552l1.181,8.629c0.655,4.828-2.724,9.284-7.552,9.948
	C223.991,294.431,223.586,294.457,223.19,294.457z"/>
<path style="fill:#FFC173;" d="M404.327,398.302l4.652-33.937c0.784-5.719-1.488-11.429-5.985-15.047l-26.352-21.198
	c-2.44-1.963-5.389-3.188-8.501-3.532l-33.816-3.736c-2.982-0.329-5.997,0.163-8.719,1.424l-32.777,15.186
	c-5.659,2.621-9.347,8.219-9.525,14.452l-0.955,33.508c-0.17,5.944,2.883,11.516,7.983,14.574l31.618,18.952
	c0.847,0.508,1.738,0.938,2.663,1.286l32.175,12.108c5.496,2.069,11.68,1.048,16.22-2.676l25.458-20.881
	C401.67,406.154,403.764,402.41,404.327,398.302z"/>
<g>
	<circle style="fill:#FAAF69;" cx="351.67" cy="380.81" r="9.533"/>
	<path style="fill:#FAAF69;" d="M359.258,415.965c-0.937-0.325-1.831-0.748-2.673-1.267l-31.408-19.351
		c-5.066-3.122-7.764-9.371-7.055-16.342l3.998-39.3c0.744-7.311,5.106-14.191,11.265-17.765l1.725-1.001l-0.788-0.087
		c-2.982-0.329-5.997,0.163-8.719,1.424l-32.777,15.186c-5.659,2.621-9.347,8.219-9.525,14.452l-0.955,33.508
		c-0.17,5.944,2.883,11.516,7.983,14.574l31.618,18.952c0.847,0.508,1.738,0.938,2.663,1.286l32.175,12.108
		c5.496,2.069,11.68,1.048,16.22-2.676l7.662-6.285L359.258,415.965z"/>
</g>
<path style="fill:#C9E66E;" d="M335.804,361.784c-2-1.05-3.598-2.864-4.323-5.192l-2.319-7.45
	c-1.449-4.656,1.148-9.602,5.804-11.051s9.602,1.148,11.051,5.804l2.319,7.45c1.449,4.656-1.148,9.602-5.804,11.051
	C340.204,363.122,337.804,362.835,335.804,361.784z"/>
<g>
	<path style="fill:#ADDF6E;" d="M310.684,383.49c-1.313-0.689-2.476-1.719-3.328-3.063l-2.393-3.75
		c-2.621-4.113-1.421-9.568,2.692-12.189c4.109-2.633,9.576-1.436,12.189,2.692l2.393,3.75c2.621,4.113,1.421,9.568-2.692,12.189
		C316.776,384.888,313.401,384.917,310.684,383.49z"/>
	<circle style="fill:#ADDF6E;" cx="366.35" cy="378.96" r="12.1"/>
</g>
<path style="fill:#FAAF69;" d="M368.14,324.588l-8.611-0.952c-0.057,0.509-0.24,0.982-0.207,1.511L360.137,338
	c0.206,3.185,2.077,5.872,4.717,7.259c1.381,0.726,2.978,1.097,4.658,0.995c4.869-0.315,8.562-4.51,8.254-9.375l-0.525-8.277
	l-0.6-0.482C374.201,326.157,371.252,324.932,368.14,324.588z"/>
<path style="fill:#C9E66E;" d="M342.029,397.84c-3.537-3.406-9.117-3.221-12.481,0.31l-13.998,14.713
	c-0.463,0.486-0.698,1.081-1.028,1.634l7.427,4.452c0.847,0.508,1.738,0.938,2.663,1.286l6.109,2.299l11.619-12.212
	C345.702,406.79,345.559,401.203,342.029,397.84z"/>
<g>
	<path style="fill:#ADDF6E;" d="M256.879,410.379c-3.724,0-7.19-2.371-8.397-6.112l-3.034-9.379
		c-1.5-4.638,1.043-9.612,5.681-11.112c4.664-1.491,9.612,1.043,11.112,5.681l3.034,9.379c1.5,4.638-1.043,9.612-5.681,11.112
		C258.69,410.241,257.776,410.379,256.879,410.379z"/>
	<path style="fill:#ADDF6E;" d="M223.983,387.121c-2.974,0-5.879-1.5-7.543-4.224l-2.319-3.793
		c-2.543-4.155-1.233-9.595,2.931-12.138c4.172-2.552,9.603-1.233,12.138,2.931l2.319,3.793c2.543,4.155,1.233,9.595-2.931,12.138
		C227.138,386.707,225.552,387.121,223.983,387.121z"/>
</g>
<path style="fill:#FFC173;" d="M370.938,310.984l-11.662-32.208c-1.965-5.427-6.631-9.427-12.295-10.538l-33.187-6.513
	c-3.073-0.603-6.253-0.316-9.169,0.827l-31.675,12.417c-2.793,1.095-5.233,2.933-7.057,5.315l-21.956,28.685
	c-3.791,4.952-4.454,11.622-1.713,17.224l14.735,30.109c2.614,5.341,7.907,8.855,13.844,9.19l36.804,2.077
	c0.986,0.055,1.975,0.022,2.955-0.1l34.115-4.241c5.828-0.724,10.828-4.503,13.116-9.912l12.829-30.324
	C372.237,319.171,372.349,314.883,370.938,310.984z"/>
<g>
	<circle style="fill:#FAAF69;" cx="316.18" cy="319.98" r="9.533"/>
	<path style="fill:#FAAF69;" d="M339.251,347.578c-0.98,0.148-1.969,0.189-2.955,0.121l-36.804-2.527
		c-5.937-0.408-11.231-4.686-13.844-11.188l-14.735-36.652c-2.741-6.818-2.078-14.938,1.713-20.966l1.061-1.688l-0.738,0.289
		c-2.793,1.095-5.233,2.933-7.057,5.315l-21.956,28.685c-3.791,4.952-4.454,11.622-1.713,17.224l14.735,30.109
		c2.614,5.341,7.907,8.855,13.844,9.19l36.804,2.077c0.986,0.055,1.975,0.022,2.955-0.1l34.115-4.241
		c5.828-0.724,10.828-4.503,13.116-9.912l3.861-9.127L339.251,347.578z"/>
</g>
<path style="fill:#C9E66E;" d="M293.293,310.517c-2.259,0-4.517-0.862-6.241-2.586l-5.517-5.517c-3.448-3.448-3.448-9.034,0-12.483
	s9.034-3.448,12.483,0l5.517,5.517c3.448,3.448,3.448,9.034,0,12.483C297.81,309.655,295.552,310.517,293.293,310.517z"/>
<g>
	<path style="fill:#ADDF6E;" d="M281.147,341.414c-1.483,0-2.991-0.371-4.371-1.164l-3.862-2.207
		c-4.233-2.422-5.707-7.81-3.284-12.043c2.414-4.241,7.81-5.724,12.043-3.284l3.862,2.207c4.233,2.422,5.707,7.81,3.284,12.043
		C287.19,339.819,284.216,341.414,281.147,341.414z"/>
	<circle style="fill:#ADDF6E;" cx="328.32" cy="311.52" r="12.1"/>
</g>
<path style="fill:#FAAF69;" d="M304.624,262.551l-8.066,3.162c0.186,0.477,0.244,0.981,0.519,1.434l6.698,11
	c1.664,2.724,4.569,4.233,7.552,4.233c1.56,0,3.147-0.414,4.586-1.284c4.164-2.543,5.483-7.974,2.948-12.138l-4.314-7.084
	l-0.755-0.148C310.72,261.122,307.54,261.408,304.624,262.551z"/>
<path style="fill:#C9E66E;" d="M315.569,339.543c-4.716-1.371-9.569,1.388-10.905,6.078l-5.552,19.534
	c-0.184,0.645-0.115,1.281-0.151,1.925l8.645,0.488c0.986,0.055,1.975,0.022,2.955-0.1l6.477-0.806l4.608-16.214
	C322.983,345.759,320.259,340.879,315.569,339.543z"/>
<circle style="fill:#EEE2D4;" cx="154.48" cy="167.72" r="70.62"/>
<circle style="fill:#FFFFFF;" cx="167.72" cy="154.48" r="70.62"/>
<circle style="fill:#E1E66E;" cx="167.72" cy="154.48" r="52.966"/>
<path style="fill:#CDE16E;" d="M167.724,101.517c-20.309,0-37.927,11.442-46.814,28.22c7.388-3.914,15.802-6.151,24.745-6.151
	c29.252,0,52.966,23.713,52.966,52.966c0,8.943-2.238,17.357-6.151,24.745c16.778-8.887,28.22-26.505,28.22-46.814
	C220.69,125.231,196.976,101.517,167.724,101.517z"/>
<g>
</g>
<g>
</g>
<g>
</g>
<g>
</g>
<g>
</g>
<g>
</g>
<g>
</g>
<g>
</g>
<g>
</g>
<g>
</g>
<g>
</g>
<g>
</g>
<g>
</g>
<g>
</g>
<g>
</g>
</svg>
